digraph "interface/interface.h"
{
  edge [fontname="Helvetica",fontsize="10",labelfontname="Helvetica",labelfontsize="10"];
  node [fontname="Helvetica",fontsize="10",shape=record];
  Node39 [label="interface/interface.h",height=0.2,width=0.4,color="black", fillcolor="grey75", style="filled", fontcolor="black"];
  Node39 -> Node40 [dir="back",color="midnightblue",fontsize="10",style="solid"];
  Node40 [label="interface/interface\l_manager.h",height=0.2,width=0.4,color="black", fillcolor="white", style="filled",URL="$interface__manager_8h.html",tooltip="Contains the prototypes and structures of the interface_manager ADT. "];
}
