digraph "interface/interface.h"
{
  edge [fontname="Helvetica",fontsize="10",labelfontname="Helvetica",labelfontsize="10"];
  node [fontname="Helvetica",fontsize="10",shape=record];
  Node0 [label="interface/interface.h",height=0.2,width=0.4,color="black", fillcolor="grey75", style="filled", fontcolor="black"];
  Node0 -> Node1 [color="midnightblue",fontsize="10",style="solid"];
  Node1 [label="math.h",height=0.2,width=0.4,color="grey75", fillcolor="white", style="filled"];
  Node0 -> Node2 [color="midnightblue",fontsize="10",style="solid"];
  Node2 [label="../utils/types.h",height=0.2,width=0.4,color="black", fillcolor="white", style="filled",URL="$types_8h_source.html"];
  Node0 -> Node3 [color="midnightblue",fontsize="10",style="solid"];
  Node3 [label="../construction/map.h",height=0.2,width=0.4,color="black", fillcolor="white", style="filled",URL="$map_8h_source.html"];
  Node3 -> Node4 [color="midnightblue",fontsize="10",style="solid"];
  Node4 [label="../utils/utils.h",height=0.2,width=0.4,color="black", fillcolor="white", style="filled",URL="$utils_8h_source.html"];
  Node4 -> Node5 [color="midnightblue",fontsize="10",style="solid"];
  Node5 [label="stdlib.h",height=0.2,width=0.4,color="grey75", fillcolor="white", style="filled"];
  Node4 -> Node6 [color="midnightblue",fontsize="10",style="solid"];
  Node6 [label="stdio.h",height=0.2,width=0.4,color="grey75", fillcolor="white", style="filled"];
  Node4 -> Node7 [color="midnightblue",fontsize="10",style="solid"];
  Node7 [label="string.h",height=0.2,width=0.4,color="grey75", fillcolor="white", style="filled"];
  Node4 -> Node8 [color="midnightblue",fontsize="10",style="solid"];
  Node8 [label="assert.h",height=0.2,width=0.4,color="grey75", fillcolor="white", style="filled"];
  Node4 -> Node9 [color="midnightblue",fontsize="10",style="solid"];
  Node9 [label="time.h",height=0.2,width=0.4,color="grey75", fillcolor="white", style="filled"];
  Node3 -> Node10 [color="midnightblue",fontsize="10",style="solid"];
  Node10 [label="../utils/permutaciones.h",height=0.2,width=0.4,color="black", fillcolor="white", style="filled",URL="$permutaciones_8h_source.html"];
  Node10 -> Node4 [color="midnightblue",fontsize="10",style="solid"];
  Node3 -> Node11 [color="midnightblue",fontsize="10",style="solid"];
  Node11 [label="../utils/includes.h",height=0.2,width=0.4,color="black", fillcolor="white", style="filled",URL="$includes_8h_source.html"];
  Node11 -> Node12 [color="midnightblue",fontsize="10",style="solid"];
  Node12 [label="sys/types.h",height=0.2,width=0.4,color="grey75", fillcolor="white", style="filled"];
  Node11 -> Node13 [color="midnightblue",fontsize="10",style="solid"];
  Node13 [label="netinet/in.h",height=0.2,width=0.4,color="grey75", fillcolor="white", style="filled"];
  Node11 -> Node14 [color="midnightblue",fontsize="10",style="solid"];
  Node14 [label="sys/wait.h",height=0.2,width=0.4,color="grey75", fillcolor="white", style="filled"];
  Node11 -> Node15 [color="midnightblue",fontsize="10",style="solid"];
  Node15 [label="sys/socket.h",height=0.2,width=0.4,color="grey75", fillcolor="white", style="filled"];
  Node11 -> Node16 [color="midnightblue",fontsize="10",style="solid"];
  Node16 [label="signal.h",height=0.2,width=0.4,color="grey75", fillcolor="white", style="filled"];
  Node11 -> Node17 [color="midnightblue",fontsize="10",style="solid"];
  Node17 [label="ctype.h",height=0.2,width=0.4,color="grey75", fillcolor="white", style="filled"];
  Node11 -> Node18 [color="midnightblue",fontsize="10",style="solid"];
  Node18 [label="arpa/inet.h",height=0.2,width=0.4,color="grey75", fillcolor="white", style="filled"];
  Node11 -> Node19 [color="midnightblue",fontsize="10",style="solid"];
  Node19 [label="netdb.h",height=0.2,width=0.4,color="grey75", fillcolor="white", style="filled"];
  Node11 -> Node20 [color="midnightblue",fontsize="10",style="solid"];
  Node20 [label="errno.h",height=0.2,width=0.4,color="grey75", fillcolor="white", style="filled"];
  Node11 -> Node21 [color="midnightblue",fontsize="10",style="solid"];
  Node21 [label="pthread.h",height=0.2,width=0.4,color="grey75", fillcolor="white", style="filled"];
  Node11 -> Node22 [color="midnightblue",fontsize="10",style="solid"];
  Node22 [label="unistd.h",height=0.2,width=0.4,color="grey75", fillcolor="white", style="filled"];
  Node11 -> Node23 [color="midnightblue",fontsize="10",style="solid"];
  Node23 [label="stdarg.h",height=0.2,width=0.4,color="grey75", fillcolor="white", style="filled"];
  Node11 -> Node6 [color="midnightblue",fontsize="10",style="solid"];
  Node11 -> Node5 [color="midnightblue",fontsize="10",style="solid"];
  Node11 -> Node7 [color="midnightblue",fontsize="10",style="solid"];
  Node11 -> Node24 [color="midnightblue",fontsize="10",style="solid"];
  Node24 [label="strings.h",height=0.2,width=0.4,color="grey75", fillcolor="white", style="filled"];
  Node11 -> Node4 [color="midnightblue",fontsize="10",style="solid"];
  Node11 -> Node8 [color="midnightblue",fontsize="10",style="solid"];
  Node11 -> Node2 [color="midnightblue",fontsize="10",style="solid"];
  Node3 -> Node25 [color="midnightblue",fontsize="10",style="solid"];
  Node25 [label="block.h",height=0.2,width=0.4,color="black", fillcolor="white", style="filled",URL="$block_8h_source.html"];
  Node25 -> Node26 [color="midnightblue",fontsize="10",style="solid"];
  Node26 [label="../utils/list.h",height=0.2,width=0.4,color="black", fillcolor="white", style="filled",URL="$list_8h_source.html"];
  Node26 -> Node11 [color="midnightblue",fontsize="10",style="solid"];
  Node26 -> Node2 [color="midnightblue",fontsize="10",style="solid"];
  Node25 -> Node11 [color="midnightblue",fontsize="10",style="solid"];
  Node25 -> Node27 [color="midnightblue",fontsize="10",style="solid"];
  Node27 [label="building.h",height=0.2,width=0.4,color="black", fillcolor="white", style="filled",URL="$building_8h_source.html"];
  Node27 -> Node11 [color="midnightblue",fontsize="10",style="solid"];
  Node0 -> Node28 [color="midnightblue",fontsize="10",style="solid"];
  Node28 [label="printer.h",height=0.2,width=0.4,color="black", fillcolor="white", style="filled",URL="$printer_8h.html",tooltip="Contains the prototypes and structures of the printer ADT. "];
  Node28 -> Node29 [color="midnightblue",fontsize="10",style="solid"];
  Node29 [label="../utils/queue.h",height=0.2,width=0.4,color="black", fillcolor="white", style="filled",URL="$queue_8h_source.html"];
  Node29 -> Node11 [color="midnightblue",fontsize="10",style="solid"];
  Node29 -> Node30 [color="midnightblue",fontsize="10",style="solid"];
  Node30 [label="functions.h",height=0.2,width=0.4,color="black", fillcolor="white", style="filled",URL="$functions_8h_source.html"];
  Node30 -> Node11 [color="midnightblue",fontsize="10",style="solid"];
  Node28 -> Node2 [color="midnightblue",fontsize="10",style="solid"];
  Node0 -> Node31 [color="midnightblue",fontsize="10",style="solid"];
  Node31 [label="interaction.h",height=0.2,width=0.4,color="black", fillcolor="white", style="filled",URL="$interaction_8h_source.html"];
  Node31 -> Node32 [color="midnightblue",fontsize="10",style="solid"];
  Node32 [label="player.h",height=0.2,width=0.4,color="black", fillcolor="white", style="filled",URL="$player_8h_source.html"];
  Node32 -> Node11 [color="midnightblue",fontsize="10",style="solid"];
  Node32 -> Node27 [color="midnightblue",fontsize="10",style="solid"];
  Node32 -> Node26 [color="midnightblue",fontsize="10",style="solid"];
  Node32 -> Node2 [color="midnightblue",fontsize="10",style="solid"];
  Node31 -> Node25 [color="midnightblue",fontsize="10",style="solid"];
  Node31 -> Node27 [color="midnightblue",fontsize="10",style="solid"];
  Node31 -> Node33 [color="midnightblue",fontsize="10",style="solid"];
  Node33 [label="../network/client_interface.h",height=0.2,width=0.4,color="black", fillcolor="white", style="filled",URL="$client__interface_8h_source.html"];
  Node33 -> Node11 [color="midnightblue",fontsize="10",style="solid"];
  Node33 -> Node12 [color="midnightblue",fontsize="10",style="solid"];
  Node33 -> Node13 [color="midnightblue",fontsize="10",style="solid"];
  Node33 -> Node14 [color="midnightblue",fontsize="10",style="solid"];
  Node33 -> Node15 [color="midnightblue",fontsize="10",style="solid"];
  Node33 -> Node16 [color="midnightblue",fontsize="10",style="solid"];
  Node33 -> Node17 [color="midnightblue",fontsize="10",style="solid"];
  Node33 -> Node18 [color="midnightblue",fontsize="10",style="solid"];
  Node33 -> Node19 [color="midnightblue",fontsize="10",style="solid"];
  Node33 -> Node20 [color="midnightblue",fontsize="10",style="solid"];
  Node33 -> Node31 [color="midnightblue",fontsize="10",style="solid"];
  Node33 -> Node34 [color="midnightblue",fontsize="10",style="solid"];
  Node34 [label="../game/game.h",height=0.2,width=0.4,color="black", fillcolor="white", style="filled",URL="$game_8h_source.html"];
  Node34 -> Node32 [color="midnightblue",fontsize="10",style="solid"];
  Node34 -> Node3 [color="midnightblue",fontsize="10",style="solid"];
  Node34 -> Node11 [color="midnightblue",fontsize="10",style="solid"];
  Node31 -> Node35 [color="midnightblue",fontsize="10",style="solid"];
  Node35 [label="../network/server_interface.h",height=0.2,width=0.4,color="black", fillcolor="white", style="filled",URL="$server__interface_8h_source.html"];
  Node35 -> Node11 [color="midnightblue",fontsize="10",style="solid"];
  Node35 -> Node36 [color="midnightblue",fontsize="10",style="solid"];
  Node36 [label="../interface/actions.h",height=0.2,width=0.4,color="black", fillcolor="white", style="filled",URL="$actions_8h_source.html"];
  Node36 -> Node11 [color="midnightblue",fontsize="10",style="solid"];
  Node35 -> Node32 [color="midnightblue",fontsize="10",style="solid"];
  Node35 -> Node29 [color="midnightblue",fontsize="10",style="solid"];
  Node35 -> Node34 [color="midnightblue",fontsize="10",style="solid"];
  Node35 -> Node31 [color="midnightblue",fontsize="10",style="solid"];
  Node31 -> Node11 [color="midnightblue",fontsize="10",style="solid"];
  Node31 -> Node37 [color="midnightblue",fontsize="10",style="solid"];
  Node37 [label="refresh.h",height=0.2,width=0.4,color="black", fillcolor="white", style="filled",URL="$refresh_8h_source.html"];
  Node37 -> Node32 [color="midnightblue",fontsize="10",style="solid"];
  Node37 -> Node3 [color="midnightblue",fontsize="10",style="solid"];
  Node37 -> Node25 [color="midnightblue",fontsize="10",style="solid"];
  Node37 -> Node11 [color="midnightblue",fontsize="10",style="solid"];
  Node37 -> Node10 [color="midnightblue",fontsize="10",style="solid"];
  Node37 -> Node34 [color="midnightblue",fontsize="10",style="solid"];
  Node37 -> Node5 [color="midnightblue",fontsize="10",style="solid"];
  Node37 -> Node6 [color="midnightblue",fontsize="10",style="solid"];
  Node37 -> Node38 [color="midnightblue",fontsize="10",style="solid"];
  Node38 [label="limits.h",height=0.2,width=0.4,color="grey75", fillcolor="white", style="filled"];
  Node37 -> Node2 [color="midnightblue",fontsize="10",style="solid"];
  Node31 -> Node38 [color="midnightblue",fontsize="10",style="solid"];
  Node31 -> Node34 [color="midnightblue",fontsize="10",style="solid"];
}
