digraph "_Game"
{
  edge [fontname="Helvetica",fontsize="10",labelfontname="Helvetica",labelfontsize="10"];
  node [fontname="Helvetica",fontsize="10",shape=record];
  Node1 [label="_Game",height=0.2,width=0.4,color="black", fillcolor="grey75", style="filled", fontcolor="black"];
  Node2 -> Node1 [dir="back",color="darkorchid3",fontsize="10",style="dashed",label=" me" ];
  Node2 [label="_player",height=0.2,width=0.4,color="black", fillcolor="white", style="filled",URL="$struct__player.html"];
  Node3 -> Node2 [dir="back",color="darkorchid3",fontsize="10",style="dashed",label=" p_labs" ];
  Node3 [label="_List",height=0.2,width=0.4,color="black", fillcolor="white", style="filled",URL="$struct__List.html"];
  Node4 -> Node3 [dir="back",color="darkorchid3",fontsize="10",style="dashed",label=" node" ];
  Node4 [label="_NodeList",height=0.2,width=0.4,color="black", fillcolor="white", style="filled",URL="$struct__NodeList.html"];
  Node4 -> Node4 [dir="back",color="darkorchid3",fontsize="10",style="dashed",label=" next" ];
  Node5 -> Node2 [dir="back",color="darkorchid3",fontsize="10",style="dashed",label=" p_restaurants\np_traphouse" ];
  Node5 [label="_Building",height=0.2,width=0.4,color="black", fillcolor="white", style="filled",URL="$struct__Building.html"];
  Node6 -> Node5 [dir="back",color="darkorchid3",fontsize="10",style="dashed",label=" parent" ];
  Node6 [label="_Block",height=0.2,width=0.4,color="black", fillcolor="white", style="filled",URL="$struct__Block.html"];
  Node3 -> Node6 [dir="back",color="darkorchid3",fontsize="10",style="dashed",label=" buildings" ];
  Node3 -> Node1 [dir="back",color="darkorchid3",fontsize="10",style="dashed",label=" foreign" ];
  Node7 -> Node1 [dir="back",color="darkorchid3",fontsize="10",style="dashed",label=" map" ];
  Node7 [label="_Map",height=0.2,width=0.4,color="black", fillcolor="white", style="filled",URL="$struct__Map.html"];
  Node6 -> Node7 [dir="back",color="darkorchid3",fontsize="10",style="dashed",label=" cells" ];
}
