digraph "music/music.h"
{
  edge [fontname="Helvetica",fontsize="10",labelfontname="Helvetica",labelfontsize="10"];
  node [fontname="Helvetica",fontsize="10",shape=record];
  Node0 [label="music/music.h",height=0.2,width=0.4,color="black", fillcolor="grey75", style="filled", fontcolor="black"];
  Node0 -> Node1 [color="midnightblue",fontsize="10",style="solid",fontname="Helvetica"];
  Node1 [label="../utils/types.h",height=0.2,width=0.4,color="black", fillcolor="white", style="filled",URL="$types_8h_source.html"];
  Node0 -> Node2 [color="midnightblue",fontsize="10",style="solid",fontname="Helvetica"];
  Node2 [label="pthread.h",height=0.2,width=0.4,color="grey75", fillcolor="white", style="filled"];
}
