digraph "music/music.h"
{
  edge [fontname="Helvetica",fontsize="10",labelfontname="Helvetica",labelfontsize="10"];
  node [fontname="Helvetica",fontsize="10",shape=record];
  Node3 [label="music/music.h",height=0.2,width=0.4,color="black", fillcolor="grey75", style="filled", fontcolor="black"];
  Node3 -> Node4 [dir="back",color="midnightblue",fontsize="10",style="solid",fontname="Helvetica"];
  Node4 [label="interface/interface\l_manager.h",height=0.2,width=0.4,color="black", fillcolor="white", style="filled",URL="$interface__manager_8h.html",tooltip="Contains the prototypes and structures of the interface_manager ADT. "];
}
