digraph "_Block"
{
  edge [fontname="Helvetica",fontsize="10",labelfontname="Helvetica",labelfontsize="10"];
  node [fontname="Helvetica",fontsize="10",shape=record];
  Node1 [label="_Block",height=0.2,width=0.4,color="black", fillcolor="grey75", style="filled", fontcolor="black"];
  Node2 -> Node1 [dir="back",color="darkorchid3",fontsize="10",style="dashed",label=" buildings" ,fontname="Helvetica"];
  Node2 [label="_List",height=0.2,width=0.4,color="black", fillcolor="white", style="filled",URL="$struct__List.html"];
  Node3 -> Node2 [dir="back",color="darkorchid3",fontsize="10",style="dashed",label=" node" ,fontname="Helvetica"];
  Node3 [label="_NodeList",height=0.2,width=0.4,color="black", fillcolor="white", style="filled",URL="$struct__NodeList.html"];
  Node3 -> Node3 [dir="back",color="darkorchid3",fontsize="10",style="dashed",label=" next" ,fontname="Helvetica"];
}
